%!PS-Adobe-3.0 EPSF-3.0
%%Title: masque.fig
%%Creator: fig2dev Version 3.2.8b
%%CreationDate: 2022-11-07 12:00:29
%%BoundingBox: 0 0 878 985
%%Magnification: 1.0000
%%EndComments
%%BeginProlog
/$F2psDict 200 dict def
$F2psDict begin
$F2psDict /mtrx matrix put
/col-1 {0 setgray} bind def
/col0 {0.000 0.000 0.000 srgb} bind def
/col7 {1.000 1.000 1.000 srgb} bind def

end

/cp {closepath} bind def
/ef {eofill} bind def
/gr {grestore} bind def
/gs {gsave} bind def
/sa {save} bind def
/rs {restore} bind def
/l {lineto} bind def
/rl {rlineto} bind def
/m {moveto} bind def
/rm {rmoveto} bind def
/n {newpath} bind def
/s {stroke} bind def
/sh {show} bind def
/slc {setlinecap} bind def
/slj {setlinejoin} bind def
/slw {setlinewidth} bind def
/srgb {setrgbcolor} bind def
/rot {rotate} bind def
/sc {scale} bind def
/sd {setdash} bind def
/ff {findfont} bind def
/sf {setfont} bind def
/scf {scalefont} bind def
/sw {stringwidth} bind def
/tr {translate} bind def
/tnt {dup dup currentrgbcolor
  4 -2 roll dup 1 exch sub 3 -1 roll mul add
  4 -2 roll dup 1 exch sub 3 -1 roll mul add
  4 -2 roll dup 1 exch sub 3 -1 roll mul add srgb}
  bind def
/shd {dup dup currentrgbcolor 4 -2 roll mul 4 -2 roll mul
  4 -2 roll mul srgb} bind def
/xfig_image {image Data flushfile} def
/reencdict 12 dict def /ReEncode { reencdict begin
/newcodesandnames exch def /newfontname exch def /basefontname exch def
/basefontdict basefontname findfont def /newfont basefontdict maxlength dict def
basefontdict { exch dup /FID ne { dup /Encoding eq
{ exch dup length array copy newfont 3 1 roll put }
{ exch newfont 3 1 roll put } ifelse } { pop pop } ifelse } forall
newfont /FontName newfontname put newcodesandnames aload pop
128 1 255 { newfont /Encoding get exch /.notdef put } for
newcodesandnames length 2 idiv { newfont /Encoding get 3 1 roll put } repeat
newfontname newfont definefont pop end } def
/isovec [
8#055 /minus 8#200 /grave 8#201 /acute 8#202 /circumflex 8#203 /tilde
8#204 /macron 8#205 /breve 8#206 /dotaccent 8#207 /dieresis
8#210 /ring 8#211 /cedilla 8#212 /hungarumlaut 8#213 /ogonek 8#214 /caron
8#220 /dotlessi 8#230 /oe 8#231 /OE
8#240 /space 8#241 /exclamdown 8#242 /cent 8#243 /sterling
8#244 /currency 8#245 /yen 8#246 /brokenbar 8#247 /section 8#250 /dieresis
8#251 /copyright 8#252 /ordfeminine 8#253 /guillemotleft 8#254 /logicalnot
8#255 /hyphen 8#256 /registered 8#257 /macron 8#260 /degree 8#261 /plusminus
8#262 /twosuperior 8#263 /threesuperior 8#264 /acute 8#265 /mu 8#266 /paragraph
8#267 /periodcentered 8#270 /cedilla 8#271 /onesuperior 8#272 /ordmasculine
8#273 /guillemotright 8#274 /onequarter 8#275 /onehalf
8#276 /threequarters 8#277 /questiondown 8#300 /Agrave 8#301 /Aacute
8#302 /Acircumflex 8#303 /Atilde 8#304 /Adieresis 8#305 /Aring
8#306 /AE 8#307 /Ccedilla 8#310 /Egrave 8#311 /Eacute
8#312 /Ecircumflex 8#313 /Edieresis 8#314 /Igrave 8#315 /Iacute
8#316 /Icircumflex 8#317 /Idieresis 8#320 /Eth 8#321 /Ntilde 8#322 /Ograve
8#323 /Oacute 8#324 /Ocircumflex 8#325 /Otilde 8#326 /Odieresis 8#327 /multiply
8#330 /Oslash 8#331 /Ugrave 8#332 /Uacute 8#333 /Ucircumflex
8#334 /Udieresis 8#335 /Yacute 8#336 /Thorn 8#337 /germandbls 8#340 /agrave
8#341 /aacute 8#342 /acircumflex 8#343 /atilde 8#344 /adieresis 8#345 /aring
8#346 /ae 8#347 /ccedilla 8#350 /egrave 8#351 /eacute
8#352 /ecircumflex 8#353 /edieresis 8#354 /igrave 8#355 /iacute
8#356 /icircumflex 8#357 /idieresis 8#360 /eth 8#361 /ntilde 8#362 /ograve
8#363 /oacute 8#364 /ocircumflex 8#365 /otilde 8#366 /odieresis 8#367 /divide
8#370 /oslash 8#371 /ugrave 8#372 /uacute 8#373 /ucircumflex
8#374 /udieresis 8#375 /yacute 8#376 /thorn 8#377 /ydieresis] def
/Times-Roman /Times-Roman-iso isovec ReEncode
 /DrawEllipse {
	/endangle exch def
	/startangle exch def
	/yrad exch def
	/xrad exch def
	/y exch def
	/x exch def
	/savematrix mtrx currentmatrix def
	x y tr xrad yrad sc 0 0 1 startangle endangle arc
	closepath
	savematrix setmatrix
	} def

/$F2psBegin {$F2psDict begin /$F2psEnteredState save def} def
/$F2psEnd {$F2psEnteredState restore end} def

/pageheader {
sa
n 0 985 m 0 0 l 878 0 l 878 985 l cp clip
-83.0 999.9 tr
1 -1 sc
$F2psBegin
10 setmiterlimit
0 slj 0 slc
 0.06299 0.06299 sc
} bind def
/pagefooter {
$F2psEnd
restore
} bind def
%%EndProlog
pageheader
%
% Fig objects follow
%
% 
% here starts figure with depth 50
/Times-Roman-iso ff 317.50 scf sf
3195 1620 m
gs 1 -1 sc (k) col0 sh gr
/Times-Roman-iso ff 317.50 scf sf
3420 1710 m
gs 1 -1 sc (y) col0 sh gr
/Times-Roman-iso ff 317.50 scf sf
7470 5295 m
gs 1 -1 sc (k) col0 sh gr
/Times-Roman-iso ff 317.50 scf sf
7695 5490 m
gs 1 -1 sc (0) col0 sh gr
/Times-Roman-iso ff 317.50 scf sf
7470 4770 m
gs 1 -1 sc (k) col0 sh gr
/Times-Roman-iso ff 317.50 scf sf
7695 4905 m
gs 1 -1 sc (x) col0 sh gr
/Times-Roman-iso ff 317.50 scf sf
3150 2100 m
gs 1 -1 sc (k) col0 sh gr
/Times-Roman-iso ff 317.50 scf sf
3375 2295 m
gs 1 -1 sc (0) col0 sh gr
/Times-Roman-iso ff 317.50 scf sf
10440 1620 m
gs 1 -1 sc (k) col0 sh gr
/Times-Roman-iso ff 317.50 scf sf
10665 1710 m
gs 1 -1 sc (y) col0 sh gr
/Times-Roman-iso ff 317.50 scf sf
10395 2100 m
gs 1 -1 sc (k) col0 sh gr
/Times-Roman-iso ff 317.50 scf sf
10620 2295 m
gs 1 -1 sc (0) col0 sh gr
/Times-Roman-iso ff 317.50 scf sf
14715 5295 m
gs 1 -1 sc (k) col0 sh gr
/Times-Roman-iso ff 317.50 scf sf
14940 5490 m
gs 1 -1 sc (0) col0 sh gr
/Times-Roman-iso ff 317.50 scf sf
14715 4770 m
gs 1 -1 sc (k) col0 sh gr
/Times-Roman-iso ff 317.50 scf sf
14940 4905 m
gs 1 -1 sc (x) col0 sh gr
% Polyline
0 slj
0 slc
30.000 slw
n 14625 4950 m
 15210 4950 l gs col0 s gr /Times-Roman-iso ff 317.50 scf sf
10424 9811 m
gs 1 -1 sc (k) col0 sh gr
/Times-Roman-iso ff 317.50 scf sf
10649 9901 m
gs 1 -1 sc (y) col0 sh gr
/Times-Roman-iso ff 317.50 scf sf
14699 13486 m
gs 1 -1 sc (k) col0 sh gr
/Times-Roman-iso ff 317.50 scf sf
14924 13681 m
gs 1 -1 sc (0) col0 sh gr
/Times-Roman-iso ff 317.50 scf sf
14699 12961 m
gs 1 -1 sc (k) col0 sh gr
/Times-Roman-iso ff 317.50 scf sf
14924 13096 m
gs 1 -1 sc (x) col0 sh gr
/Times-Roman-iso ff 317.50 scf sf
10379 10291 m
gs 1 -1 sc (k) col0 sh gr
/Times-Roman-iso ff 317.50 scf sf
10604 10486 m
gs 1 -1 sc (0) col0 sh gr
/Times-Roman-iso ff 317.50 scf sf
3240 9810 m
gs 1 -1 sc (k) col0 sh gr
/Times-Roman-iso ff 317.50 scf sf
3465 9900 m
gs 1 -1 sc (y) col0 sh gr
/Times-Roman-iso ff 317.50 scf sf
7515 13485 m
gs 1 -1 sc (k) col0 sh gr
/Times-Roman-iso ff 317.50 scf sf
7740 13680 m
gs 1 -1 sc (0) col0 sh gr
/Times-Roman-iso ff 317.50 scf sf
7515 12960 m
gs 1 -1 sc (k) col0 sh gr
/Times-Roman-iso ff 317.50 scf sf
7740 13095 m
gs 1 -1 sc (x) col0 sh gr
/Times-Roman-iso ff 317.50 scf sf
3195 10290 m
gs 1 -1 sc (k) col0 sh gr
/Times-Roman-iso ff 317.50 scf sf
3420 10485 m
gs 1 -1 sc (0) col0 sh gr
% Ellipse
n 12149 14056 1065 1065 0 360 DrawEllipse gs col7 0.70 shd ef gr gs col0 s gr
% Ellipse
n 4140 13140 1773 1773 0 360 DrawEllipse gs col7 1.00 shd ef gr gs col0 s gr
% Polyline
7.500 slw
gs  clippath
14436 13134 m 14436 13148 l 14292 13171 l 14412 13141 l 14292 13111 l cp
eoclip
n 8579 13141 m
 14429 13141 l gs col0 s gr gr
% arrowhead
n 14292 13111 m 14412 13141 l 14292 13171 l  col0 s
% Polyline
gs  clippath
11272 9984 m 11286 9984 l 11309 10128 l 11279 10008 l 11249 10128 l cp
eoclip
n 11279 15841 m
 11279 9991 l gs col0 s gr gr
% arrowhead
n 11249 10128 m 11279 10008 l 11309 10128 l  col0 s
% Polyline
30.000 slw
n 13979 12916 m
 13979 13366 l gs col0 s gr % Polyline
n 8579 12916 m
 8579 13366 l gs col0 s gr % Polyline
n 11504 15841 m
 11054 15841 l gs col0 s gr % Polyline
n 11504 10441 m
 11054 10441 l gs col0 s gr % Polyline
n 14609 13141 m
 15194 13141 l gs col0 s gr % Polyline
n 10334 9991 m
 10874 9991 l gs col0 s gr % Polyline
gs  clippath
13086 13476 m 13104 13508 l 12887 13662 l 13021 13534 l 12843 13584 l cp
eoclip
n 12138 14036 m
 13079 13501 l gs col0 s gr gr
% arrowhead
n 12843 13584 m 13021 13534 l 12887 13662 l  col0 s
% Polyline
 [120] 0 sd
n 12154 14030 m
 11289 14035 l gs col0 s gr  [] 0 sd
% Polyline
 [120] 0 sd
n 12154 14030 m
 12154 13147 l gs col0 s gr  [] 0 sd
% Polyline
7.500 slw
gs  clippath
7252 13133 m 7252 13147 l 7108 13170 l 7228 13140 l 7108 13110 l cp
eoclip
n 1395 13140 m
 7245 13140 l gs col0 s gr gr
% arrowhead
n 7108 13110 m 7228 13140 l 7108 13170 l  col0 s
% Polyline
gs  clippath
4088 9983 m 4102 9983 l 4125 10127 l 4095 10007 l 4065 10127 l cp
eoclip
n 4095 15840 m
 4095 9990 l gs col0 s gr gr
% arrowhead
n 4065 10127 m 4095 10007 l 4125 10127 l  col0 s
% Polyline
30.000 slw
n 6795 12915 m
 6795 13365 l gs col0 s gr % Polyline
n 1395 12915 m
 1395 13365 l gs col0 s gr % Polyline
n 4320 15840 m
 3870 15840 l gs col0 s gr % Polyline
n 4320 10440 m
 3870 10440 l gs col0 s gr % Polyline
n 7425 13140 m
 8010 13140 l gs col0 s gr % Polyline
n 3150 9990 m
 3690 9990 l gs col0 s gr % Polyline
gs  clippath
5644 12165 m 5663 12196 l 5451 12357 l 5582 12225 l 5404 12280 l cp
eoclip
n 4093 13135 m
 5638 12190 l gs col0 s gr gr
% arrowhead
n 5404 12280 m 5582 12225 l 5451 12357 l  col0 s
/Times-Roman-iso ff 317.50 scf sf
8579 13816 m
gs 1 -1 sc (-1) col0 sh gr
/Times-Roman-iso ff 317.50 scf sf
11729 10441 m
gs 1 -1 sc (1) col0 sh gr
/Times-Roman-iso ff 317.50 scf sf
11729 15841 m
gs 1 -1 sc (-1) col0 sh gr
/Times-Roman-iso ff 317.50 scf sf
10826 14937 m
gs 1 -1 sc  90.0 rot (Aperture position y) col0 sh gr
/Times-Roman-iso ff 317.50 scf sf
14099 13636 m
gs 1 -1 sc (1) col0 sh gr
/Times-Roman-iso ff 317.50 scf sf
11527 12706 m
gs 1 -1 sc (Aperture positionx) col0 sh gr
/Times-Roman-iso ff 317.50 scf sf
1395 13815 m
gs 1 -1 sc (-1) col0 sh gr
/Times-Roman-iso ff 317.50 scf sf
6795 12690 m
gs 1 -1 sc (1) col0 sh gr
/Times-Roman-iso ff 317.50 scf sf
4545 10440 m
gs 1 -1 sc (1) col0 sh gr
/Times-Roman-iso ff 317.50 scf sf
4545 15840 m
gs 1 -1 sc (-1) col0 sh gr
% Ellipse
n 4095 4950 1773 1773 0 360 DrawEllipse gs col7 0.70 shd ef gr gs col0 s gr
% Ellipse
n 11340 4950 1773 1773 0 360 DrawEllipse gs col7 0.70 shd ef gr gs col0 s gr
% Ellipse
n 11295 4950 1020 1020 0 360 DrawEllipse gs col7 1.00 shd ef gr gs col0 s gr
% Polyline
gs  clippath
5601 3980 m 5620 4011 l 5408 4172 l 5539 4040 l 5361 4095 l cp
eoclip
n 4050 4950 m
 5595 4005 l gs col0 s gr gr
% arrowhead
n 5361 4095 m 5539 4040 l 5408 4172 l  col0 s
% Polyline
7.500 slw
gs  clippath
7207 4943 m 7207 4957 l 7063 4980 l 7183 4950 l 7063 4920 l cp
eoclip
n 1350 4950 m
 7200 4950 l gs col0 s gr gr
% arrowhead
n 7063 4920 m 7183 4950 l 7063 4980 l  col0 s
% Polyline
gs  clippath
4043 1793 m 4057 1793 l 4080 1937 l 4050 1817 l 4020 1937 l cp
eoclip
n 4050 7650 m
 4050 1800 l gs col0 s gr gr
% arrowhead
n 4020 1937 m 4050 1817 l 4080 1937 l  col0 s
% Polyline
30.000 slw
n 6750 4725 m
 6750 5175 l gs col0 s gr % Polyline
n 1350 4725 m
 1350 5175 l gs col0 s gr % Polyline
n 4275 7650 m
 3825 7650 l gs col0 s gr % Polyline
n 4275 2250 m
 3825 2250 l gs col0 s gr % Polyline
n 7380 4950 m
 7965 4950 l gs col0 s gr % Polyline
n 3105 1800 m
 3645 1800 l gs col0 s gr % Polyline
7.500 slw
gs  clippath
14452 4943 m 14452 4957 l 14308 4980 l 14428 4950 l 14308 4920 l cp
eoclip
n 8595 4950 m
 14445 4950 l gs col0 s gr gr
% arrowhead
n 14308 4920 m 14428 4950 l 14308 4980 l  col0 s
% Polyline
gs  clippath
11288 1793 m 11302 1793 l 11325 1937 l 11295 1817 l 11265 1937 l cp
eoclip
n 11295 7650 m
 11295 1800 l gs col0 s gr gr
% arrowhead
n 11265 1937 m 11295 1817 l 11325 1937 l  col0 s
% Polyline
30.000 slw
n 13995 4725 m
 13995 5175 l gs col0 s gr % Polyline
n 8595 4725 m
 8595 5175 l gs col0 s gr % Polyline
n 11520 7650 m
 11070 7650 l gs col0 s gr % Polyline
n 11520 2250 m
 11070 2250 l gs col0 s gr % Polyline
n 10350 1800 m
 10890 1800 l gs col0 s gr % Polyline
gs  clippath
12852 3981 m 12871 4012 l 12659 4173 l 12790 4041 l 12612 4096 l cp
eoclip
n 11301 4951 m
 12846 4006 l gs col0 s gr gr
% arrowhead
n 12612 4096 m 12790 4041 l 12659 4173 l  col0 s
% Polyline
gs  clippath
12115 5592 m 12093 5620 l 11870 5475 l 12039 5553 l 11927 5405 l cp
eoclip
n 11295 4951 m
 12090 5595 l gs col0 s gr gr
% arrowhead
n 11927 5405 m 12039 5553 l 11870 5475 l  col0 s
/Times-Roman-iso ff 317.50 scf sf
1350 5625 m
gs 1 -1 sc (-1) col0 sh gr
/Times-Roman-iso ff 317.50 scf sf
6750 4500 m
gs 1 -1 sc (1) col0 sh gr
/Times-Roman-iso ff 317.50 scf sf
4500 2250 m
gs 1 -1 sc (1) col0 sh gr
/Times-Roman-iso ff 317.50 scf sf
4500 7650 m
gs 1 -1 sc (-1) col0 sh gr
/Times-Roman-iso ff 317.50 scf sf
8595 5625 m
gs 1 -1 sc (-1) col0 sh gr
/Times-Roman-iso ff 317.50 scf sf
13995 4500 m
gs 1 -1 sc (1) col0 sh gr
/Times-Roman-iso ff 317.50 scf sf
11745 2250 m
gs 1 -1 sc (1) col0 sh gr
/Times-Roman-iso ff 317.50 scf sf
11745 7650 m
gs 1 -1 sc (-1) col0 sh gr
/Times-Roman-iso ff 317.50 scf sf
11057 5293 m
gs 1 -1 sc  325.0 rot (Central aperture) col0 sh gr
/Times-Roman-iso ff 444.50 scf sf
10530 675 m
gs 1 -1 sc (\(b\)) col0 sh gr
/Times-Roman-iso ff 444.50 scf sf
3735 585 m
gs 1 -1 sc (\(a\)) col0 sh gr
/Times-Roman-iso ff 444.50 scf sf
3915 9270 m
gs 1 -1 sc (\(c\)) col0 sh gr
/Times-Roman-iso ff 444.50 scf sf
11070 9315 m
gs 1 -1 sc (\(d\)) col0 sh gr
% here ends figure;
% 
% here starts figure with depth 48
/Times-Roman-iso ff 317.50 scf sf
4590 12690 m
gs 1 -1 sc  30.0 rot (NA) col0 sh gr
/Times-Roman-iso ff 317.50 scf sf
12375 13815 m
gs 1 -1 sc  30.0 rot (NA) col0 sh gr
/Times-Roman-iso ff 317.50 scf sf
4410 4635 m
gs 1 -1 sc  30.0 rot (NA) col0 sh gr
/Times-Roman-iso ff 317.50 scf sf
11655 4635 m
gs 1 -1 sc  30.0 rot (NA) col0 sh gr
% here ends figure;
pagefooter
showpage
%%Trailer
%EOF
